{
  "action-layout-toolbar": [
    "Add Books",
    "Edit Metadata",
    null,
    "Convert Books",
    "View",
    null,
    "Store",
    "Fetch News",
    "Help",
    null,
    "Remove Books",
    "Choose Library",
    "Save To Disk",
    "Tweak ePub",
    "Preferences",
    "Obok DeDRM"
  ],
  "action-layout-toolbar-device": [
    "Add Books",
    "Edit Metadata",
    null,
    "Convert Books",
    "View",
    "Send To Device",
    null,
    null,
    "Location Manager",
    null,
    null,
    "Fetch News",
    "Save To Disk",
    "Store",
    null,
    "Remove Books",
    null,
    "Help",
    "Preferences",
    "Obok DeDRM"
  ],
  "basic_metadata_widget_splitter_state": {
    "__class__": "bytearray",
    "__value__": "AAAA/wAAAAEAAAADAAAA7gAAAd0AAAEKAf////8BAAAAAQA="
  },
  "book_details_comments_heading_pos": "above",
  "book_details_splitter_horizontal_state": [
    true,
    522
  ],
  "book_details_splitter_vertical_state": [
    true,
    228
  ],
  "book_info_dialog_splitter_state": {
    "__class__": "bytearray",
    "__value__": "AAAA/wAAAAEAAAACAAABXgAAAWYB/////wEAAAABAA=="
  },
  "book_list_pin_splitter_state": {
    "__class__": "bytearray",
    "__value__": "AAAA/wAAAAEAAAACAAABAAAAAEYA/////wEAAAABAA=="
  },
  "booklist_grid": true,
  "card_a_view books view state": {
    "column_alignment": {
      "size": "center",
      "timestamp": "center"
    },
    "column_positions": {
      "authors": 2,
      "collections": 5,
      "inlibrary": 0,
      "size": 4,
      "timestamp": 3,
      "title": 1
    },
    "column_sizes": {
      "authors": 85,
      "collections": 96,
      "inlibrary": 155,
      "size": 61,
      "timestamp": 70,
      "title": 57
    },
    "hidden_columns": [],
    "languages_injected": true,
    "last_modified_injected": true,
    "sort_history": [
      [
        "timestamp",
        false
      ],
      [
        "inlibrary",
        false
      ],
      [
        "timestamp",
        false
      ],
      [
        "inlibrary",
        false
      ],
      [
        "timestamp",
        false
      ],
      [
        "inlibrary",
        false
      ],
      [
        "timestamp",
        false
      ],
      [
        "inlibrary",
        false
      ],
      [
        "timestamp",
        false
      ],
      [
        "inlibrary",
        false
      ],
      [
        "timestamp",
        false
      ]
    ]
  },
  "card_b_view books view state": {
    "column_alignment": {
      "size": "center",
      "timestamp": "center"
    },
    "column_positions": {
      "authors": 2,
      "collections": 5,
      "inlibrary": 0,
      "size": 4,
      "timestamp": 3,
      "title": 1
    },
    "column_sizes": {
      "authors": 85,
      "collections": 96,
      "inlibrary": 155,
      "size": 61,
      "timestamp": 70,
      "title": 57
    },
    "hidden_columns": [],
    "languages_injected": true,
    "last_modified_injected": true,
    "sort_history": [
      [
        "timestamp",
        false
      ],
      [
        "inlibrary",
        false
      ],
      [
        "timestamp",
        false
      ],
      [
        "inlibrary",
        false
      ],
      [
        "timestamp",
        false
      ],
      [
        "inlibrary",
        false
      ],
      [
        "timestamp",
        false
      ],
      [
        "inlibrary",
        false
      ],
      [
        "timestamp",
        false
      ],
      [
        "inlibrary",
        false
      ],
      [
        "timestamp",
        false
      ]
    ]
  },
  "cb_preserve_aspect_ratio": true,
  "color_palette": "dark",
  "cover_browser_splitter_horizontal_state": [
    false,
    550
  ],
  "cover_browser_splitter_vertical_state": [
    false,
    317
  ],
  "cover_grid_color": [
    80,
    80,
    80
  ],
  "cover_grid_show_title": true,
  "cover_grid_texture": null,
  "custom_colors_for_color_dialog": [
    [
      255,
      255,
      255,
      255
    ],
    [
      255,
      255,
      255,
      255
    ],
    [
      255,
      255,
      255,
      255
    ],
    [
      255,
      255,
      255,
      255
    ],
    [
      255,
      255,
      255,
      255
    ],
    [
      255,
      255,
      255,
      255
    ],
    [
      255,
      255,
      255,
      255
    ],
    [
      255,
      255,
      255,
      255
    ],
    [
      255,
      255,
      255,
      255
    ],
    [
      255,
      255,
      255,
      255
    ],
    [
      255,
      255,
      255,
      255
    ],
    [
      255,
      255,
      255,
      255
    ],
    [
      255,
      255,
      255,
      255
    ],
    [
      255,
      255,
      255,
      255
    ],
    [
      255,
      255,
      255,
      255
    ],
    [
      255,
      255,
      255,
      255
    ]
  ],
  "default_author_link": "search-calibre",
  "font": [
    "Noto Sans",
    10,
    400,
    false
  ],
  "font_stretch": 0,
  "geometry-of-Plugin Updater plugin:plugin updater dialog": {
    "frame_geometry": {
      "height": 490,
      "width": 980,
      "x": 470,
      "y": 295
    },
    "full_screened": false,
    "geometry": {
      "height": 486,
      "width": 976,
      "x": 472,
      "y": 297
    },
    "maximized": false,
    "normal_geometry": {
      "height": 486,
      "width": 976,
      "x": 472,
      "y": 297
    },
    "qt": {
      "__class__": "bytearray",
      "__value__": "AdnQywADAAAAAAHWAAABJwAABakAAAMQAAAB2AAAASkAAAWnAAADDgAAAAAAAAAAB4AAAAHYAAABKQAABacAAAMO"
    },
    "screen": {
      "depth": 24,
      "device_pixel_ratio": 1.0,
      "geometry_in_logical_pixels": {
        "height": 1080,
        "width": 1920,
        "x": 0,
        "y": 0
      },
      "index_in_screens_list": 0,
      "manufacturer": "",
      "model": "",
      "name": "HDMI-1",
      "serial": "",
      "size_in_logical_pixels": {
        "height": 1080,
        "width": 1920
      },
      "virtual_geometry": {
        "height": 1080,
        "width": 1920,
        "x": 0,
        "y": 0
      }
    }
  },
  "geometry-of-book_info_dialog_geometry": {
    "frame_geometry": {
      "height": 984,
      "width": 914,
      "x": 503,
      "y": 48
    },
    "full_screened": false,
    "geometry": {
      "height": 980,
      "width": 910,
      "x": 505,
      "y": 50
    },
    "maximized": false,
    "normal_geometry": {
      "height": 980,
      "width": 910,
      "x": 505,
      "y": 50
    },
    "qt": {
      "__class__": "bytearray",
      "__value__": "AdnQywADAAAAAAH3AAAAMAAABYgAAAQHAAAB+QAAADIAAAWGAAAEBQAAAAAAAAAAB4AAAAH5AAAAMgAABYYAAAQF"
    },
    "screen": {
      "depth": 24,
      "device_pixel_ratio": 1.0,
      "geometry_in_logical_pixels": {
        "height": 1080,
        "width": 1920,
        "x": 0,
        "y": 0
      },
      "index_in_screens_list": 0,
      "manufacturer": "Philips Consumer Electronics Company",
      "model": "PHL 241E1-",
      "name": "HDMI-1",
      "serial": "22106",
      "size_in_logical_pixels": {
        "height": 1080,
        "width": 1920
      },
      "virtual_geometry": {
        "height": 1080,
        "width": 1920,
        "x": 0,
        "y": 0
      }
    }
  },
  "geometry-of-calibre_main_window_geometry": {
    "frame_geometry": {
      "height": 1055,
      "width": 1916,
      "x": 0,
      "y": 560
    },
    "full_screened": false,
    "geometry": {
      "height": 1055,
      "width": 1916,
      "x": 0,
      "y": 560
    },
    "maximized": false,
    "normal_geometry": {
      "height": 1055,
      "width": 1916,
      "x": 0,
      "y": 560
    },
    "qt": {
      "__class__": "bytearray",
      "__value__": "AdnQywADAAAAAAAAAAACMAAAB3sAAAZOAAAAAAAAAjAAAAd7AAAGTgAAAAAAAAAAB4AAAAAAAAACMAAAB3sAAAZO"
    },
    "screen": {
      "depth": 32,
      "device_pixel_ratio": 1.0,
      "geometry_in_logical_pixels": {
        "height": 1080,
        "width": 1920,
        "x": 0,
        "y": 560
      },
      "index_in_screens_list": 0,
      "manufacturer": "Philips Consumer Electronics Company",
      "model": "PHL 241E1",
      "name": "HDMI-A-1",
      "serial": "",
      "size_in_logical_pixels": {
        "height": 1080,
        "width": 1920
      },
      "virtual_geometry": {
        "height": 1920,
        "width": 3000,
        "x": 0,
        "y": 0
      }
    }
  },
  "geometry-of-choose-icon-theme-dialog-geometry": {
    "frame_geometry": {
      "height": 1005,
      "width": 900,
      "x": 0,
      "y": 560
    },
    "full_screened": false,
    "geometry": {
      "height": 1005,
      "width": 900,
      "x": 0,
      "y": 560
    },
    "maximized": false,
    "normal_geometry": {
      "height": 1005,
      "width": 900,
      "x": 0,
      "y": 560
    },
    "qt": {
      "__class__": "bytearray",
      "__value__": "AdnQywADAAAAAAAAAAACMAAAA4MAAAYcAAAAAAAAAjAAAAODAAAGHAAAAAAAAAAAB4AAAAAAAAACMAAAA4MAAAYc"
    },
    "screen": {
      "depth": 32,
      "device_pixel_ratio": 1.0,
      "geometry_in_logical_pixels": {
        "height": 1080,
        "width": 1920,
        "x": 0,
        "y": 560
      },
      "index_in_screens_list": 0,
      "manufacturer": "Philips Consumer Electronics Company",
      "model": "PHL 241E1",
      "name": "HDMI-A-1",
      "serial": "",
      "size_in_logical_pixels": {
        "height": 1080,
        "width": 1920
      },
      "virtual_geometry": {
        "height": 1920,
        "width": 3000,
        "x": 0,
        "y": 0
      }
    }
  },
  "geometry-of-convert_single_dialog_geom": {
    "frame_geometry": {
      "height": 984,
      "width": 1854,
      "x": 33,
      "y": 48
    },
    "full_screened": false,
    "geometry": {
      "height": 980,
      "width": 1850,
      "x": 35,
      "y": 50
    },
    "maximized": false,
    "normal_geometry": {
      "height": 980,
      "width": 1850,
      "x": 35,
      "y": 50
    },
    "qt": {
      "__class__": "bytearray",
      "__value__": "AdnQywADAAAAAAAhAAAAMAAAB14AAAQHAAAAIwAAADIAAAdcAAAEBQAAAAAAAAAAB4AAAAAjAAAAMgAAB1wAAAQF"
    },
    "screen": {
      "depth": 24,
      "device_pixel_ratio": 1.0,
      "geometry_in_logical_pixels": {
        "height": 1080,
        "width": 1920,
        "x": 0,
        "y": 0
      },
      "index_in_screens_list": 0,
      "manufacturer": "",
      "model": "",
      "name": "HDMI-1",
      "serial": "",
      "size_in_logical_pixels": {
        "height": 1080,
        "width": 1920
      },
      "virtual_geometry": {
        "height": 1080,
        "width": 1920,
        "x": 0,
        "y": 0
      }
    }
  },
  "geometry-of-cover_browser_dialog_geometry": {
    "frame_geometry": {
      "height": 1059,
      "width": 577,
      "x": 1341,
      "y": -2
    },
    "full_screened": false,
    "geometry": {
      "height": 1055,
      "width": 573,
      "x": 1343,
      "y": 0
    },
    "maximized": false,
    "normal_geometry": {
      "height": 1055,
      "width": 573,
      "x": 1343,
      "y": 0
    },
    "qt": {
      "__class__": "bytearray",
      "__value__": "AdnQywADAAAAAAU9/////gAAB30AAAQgAAAFPwAAAAAAAAd7AAAEHgAAAAAAAAAAB4AAAAU/AAAAAAAAB3sAAAQe"
    },
    "screen": {
      "depth": 24,
      "device_pixel_ratio": 1.0,
      "geometry_in_logical_pixels": {
        "height": 1080,
        "width": 1920,
        "x": 0,
        "y": 0
      },
      "index_in_screens_list": 0,
      "manufacturer": "",
      "model": "",
      "name": "HDMI-1",
      "serial": "",
      "size_in_logical_pixels": {
        "height": 1080,
        "width": 1920
      },
      "virtual_geometry": {
        "height": 1080,
        "width": 1920,
        "x": 0,
        "y": 0
      }
    }
  },
  "geometry-of-duplicates-question-dialog-geometry": {
    "frame_geometry": {
      "height": 384,
      "width": 724,
      "x": 598,
      "y": 348
    },
    "full_screened": false,
    "geometry": {
      "height": 380,
      "width": 720,
      "x": 600,
      "y": 350
    },
    "maximized": false,
    "normal_geometry": {
      "height": 380,
      "width": 720,
      "x": 600,
      "y": 350
    },
    "qt": {
      "__class__": "bytearray",
      "__value__": "AdnQywADAAAAAAJWAAABXAAABSkAAALbAAACWAAAAV4AAAUnAAAC2QAAAAAAAAAAB4AAAAJYAAABXgAABScAAALZ"
    },
    "screen": {
      "depth": 24,
      "device_pixel_ratio": 1.0,
      "geometry_in_logical_pixels": {
        "height": 1080,
        "width": 1920,
        "x": 0,
        "y": 0
      },
      "index_in_screens_list": 0,
      "manufacturer": "Philips Consumer Electronics Company",
      "model": "PHL 241E1-",
      "name": "HDMI-1",
      "serial": "22106",
      "size_in_logical_pixels": {
        "height": 1080,
        "width": 1920
      },
      "virtual_geometry": {
        "height": 1080,
        "width": 3840,
        "x": 0,
        "y": 0
      }
    }
  },
  "geometry-of-jobs_dialog_geometry": {
    "frame_geometry": {
      "height": 362,
      "width": 761,
      "x": 579,
      "y": 359
    },
    "full_screened": false,
    "geometry": {
      "height": 358,
      "width": 757,
      "x": 581,
      "y": 361
    },
    "maximized": false,
    "normal_geometry": {
      "height": 358,
      "width": 757,
      "x": 581,
      "y": 361
    },
    "qt": {
      "__class__": "bytearray",
      "__value__": "AdnQywADAAAAAAJDAAABZwAABTsAAALQAAACRQAAAWkAAAU5AAACzgAAAAAAAAAAB4AAAAJFAAABaQAABTkAAALO"
    },
    "screen": {
      "depth": 24,
      "device_pixel_ratio": 1.0,
      "geometry_in_logical_pixels": {
        "height": 1080,
        "width": 1920,
        "x": 0,
        "y": 0
      },
      "index_in_screens_list": 0,
      "manufacturer": "Philips Consumer Electronics Company",
      "model": "PHL 241E1-",
      "name": "HDMI-1",
      "serial": "22106",
      "size_in_logical_pixels": {
        "height": 1080,
        "width": 1920
      },
      "virtual_geometry": {
        "height": 1080,
        "width": 1920,
        "x": 0,
        "y": 0
      }
    }
  },
  "geometry-of-match_books_dialog_geometry": {
    "frame_geometry": {
      "height": 1059,
      "width": 807,
      "x": 1113,
      "y": 0
    },
    "full_screened": false,
    "geometry": {
      "height": 1055,
      "width": 803,
      "x": 1115,
      "y": 2
    },
    "maximized": false,
    "normal_geometry": {
      "height": 1055,
      "width": 803,
      "x": 1115,
      "y": 2
    },
    "qt": {
      "__class__": "bytearray",
      "__value__": "AdnQywADAAAAAARZAAAAAAAAB38AAAQiAAAEWwAAAAIAAAd9AAAEIAAAAAAAAAAAB4AAAARbAAAAAgAAB30AAAQg"
    },
    "screen": {
      "depth": 24,
      "device_pixel_ratio": 1.0,
      "geometry_in_logical_pixels": {
        "height": 1080,
        "width": 1920,
        "x": 0,
        "y": 0
      },
      "index_in_screens_list": 0,
      "manufacturer": "",
      "model": "",
      "name": "HDMI-1",
      "serial": "",
      "size_in_logical_pixels": {
        "height": 1080,
        "width": 1920
      },
      "virtual_geometry": {
        "height": 1080,
        "width": 1920,
        "x": 0,
        "y": 0
      }
    }
  },
  "geometry-of-metadata_single_gui_geom": {
    "frame_geometry": {
      "height": 604,
      "width": 854,
      "x": 533,
      "y": 238
    },
    "full_screened": false,
    "geometry": {
      "height": 600,
      "width": 850,
      "x": 535,
      "y": 240
    },
    "maximized": false,
    "normal_geometry": {
      "height": 600,
      "width": 850,
      "x": 535,
      "y": 240
    },
    "qt": {
      "__class__": "bytearray",
      "__value__": "AdnQywADAAAAAAIVAAAA7gAABWoAAANJAAACFwAAAPAAAAVoAAADRwAAAAAAAAAAB4AAAAIXAAAA8AAABWgAAANH"
    },
    "screen": {
      "depth": 24,
      "device_pixel_ratio": 1.0,
      "geometry_in_logical_pixels": {
        "height": 1080,
        "width": 1920,
        "x": 0,
        "y": 0
      },
      "index_in_screens_list": 0,
      "manufacturer": "Philips Consumer Electronics Company",
      "model": "PHL 241E1-",
      "name": "HDMI-1",
      "serial": "22106",
      "size_in_logical_pixels": {
        "height": 1080,
        "width": 1920
      },
      "virtual_geometry": {
        "height": 1080,
        "width": 3840,
        "x": 0,
        "y": 0
      }
    }
  },
  "geometry-of-metasingle_window_geometry3": {
    "frame_geometry": {
      "height": 1034,
      "width": 1854,
      "x": 33,
      "y": 23
    },
    "full_screened": false,
    "geometry": {
      "height": 1030,
      "width": 1850,
      "x": 35,
      "y": 25
    },
    "maximized": false,
    "normal_geometry": {
      "height": 1030,
      "width": 1850,
      "x": 35,
      "y": 25
    },
    "qt": {
      "__class__": "bytearray",
      "__value__": "AdnQywADAAAAAAAhAAAAFwAAB14AAAQgAAAAIwAAABkAAAdcAAAEHgAAAAAAAAAAB4AAAAAjAAAAGQAAB1wAAAQe"
    },
    "screen": {
      "depth": 24,
      "device_pixel_ratio": 1.0,
      "geometry_in_logical_pixels": {
        "height": 1080,
        "width": 1920,
        "x": 0,
        "y": 0
      },
      "index_in_screens_list": 0,
      "manufacturer": "Philips Consumer Electronics Company",
      "model": "PHL 241E1-",
      "name": "HDMI-1",
      "serial": "22106",
      "size_in_logical_pixels": {
        "height": 1080,
        "width": 1920
      },
      "virtual_geometry": {
        "height": 1080,
        "width": 3840,
        "x": 0,
        "y": 0
      }
    }
  },
  "geometry-of-plugin config dialog:Action interface utilisateur:Obok DeDRM": {
    "frame_geometry": {
      "height": 210,
      "width": 545,
      "x": 687,
      "y": 435
    },
    "full_screened": false,
    "geometry": {
      "height": 206,
      "width": 541,
      "x": 689,
      "y": 437
    },
    "maximized": false,
    "normal_geometry": {
      "height": 206,
      "width": 541,
      "x": 689,
      "y": 437
    },
    "qt": {
      "__class__": "bytearray",
      "__value__": "AdnQywADAAAAAAKvAAABswAABM8AAAKEAAACsQAAAbUAAATNAAACggAAAAAAAAAAB4AAAAKxAAABtQAABM0AAAKC"
    },
    "screen": {
      "depth": 24,
      "device_pixel_ratio": 1.0,
      "geometry_in_logical_pixels": {
        "height": 1080,
        "width": 1920,
        "x": 0,
        "y": 0
      },
      "index_in_screens_list": 0,
      "manufacturer": "",
      "model": "",
      "name": "HDMI-1",
      "serial": "",
      "size_in_logical_pixels": {
        "height": 1080,
        "width": 1920
      },
      "virtual_geometry": {
        "height": 1080,
        "width": 1920,
        "x": 0,
        "y": 0
      }
    }
  },
  "geometry-of-plugin config dialog:Type de fichier:DeDRM": {
    "frame_geometry": {
      "height": 573,
      "width": 300,
      "x": 810,
      "y": 253
    },
    "full_screened": false,
    "geometry": {
      "height": 569,
      "width": 296,
      "x": 812,
      "y": 255
    },
    "maximized": false,
    "normal_geometry": {
      "height": 569,
      "width": 296,
      "x": 812,
      "y": 255
    },
    "qt": {
      "__class__": "bytearray",
      "__value__": "AdnQywADAAAAAAMqAAAA/QAABFUAAAM5AAADLAAAAP8AAARTAAADNwAAAAAAAAAAB4AAAAMsAAAA/wAABFMAAAM3"
    },
    "screen": {
      "depth": 24,
      "device_pixel_ratio": 1.0,
      "geometry_in_logical_pixels": {
        "height": 1080,
        "width": 1920,
        "x": 0,
        "y": 0
      },
      "index_in_screens_list": 0,
      "manufacturer": "Philips Consumer Electronics Company",
      "model": "PHL 241E1-",
      "name": "HDMI-1",
      "serial": "22106",
      "size_in_logical_pixels": {
        "height": 1080,
        "width": 1920
      },
      "virtual_geometry": {
        "height": 1080,
        "width": 1920,
        "x": 0,
        "y": 0
      }
    }
  },
  "geometry-of-preferences dialog geometry": {
    "frame_geometry": {
      "height": 741,
      "width": 1486,
      "x": 0,
      "y": 560
    },
    "full_screened": false,
    "geometry": {
      "height": 741,
      "width": 1486,
      "x": 0,
      "y": 560
    },
    "maximized": false,
    "normal_geometry": {
      "height": 741,
      "width": 1486,
      "x": 0,
      "y": 560
    },
    "qt": {
      "__class__": "bytearray",
      "__value__": "AdnQywADAAAAAAAAAAACMAAABc0AAAUUAAAAAAAAAjAAAAXNAAAFFAAAAAAAAAAAB4AAAAAAAAACMAAABc0AAAUU"
    },
    "screen": {
      "depth": 32,
      "device_pixel_ratio": 1.0,
      "geometry_in_logical_pixels": {
        "height": 1080,
        "width": 1920,
        "x": 0,
        "y": 560
      },
      "index_in_screens_list": 0,
      "manufacturer": "Philips Consumer Electronics Company",
      "model": "PHL 241E1",
      "name": "HDMI-A-1",
      "serial": "",
      "size_in_logical_pixels": {
        "height": 1080,
        "width": 1920
      },
      "virtual_geometry": {
        "height": 1920,
        "width": 3000,
        "x": 0,
        "y": 0
      }
    }
  },
  "geometry-of-quickview_dialog_geometry": {
    "frame_geometry": {
      "height": 1059,
      "width": 807,
      "x": 1113,
      "y": 0
    },
    "full_screened": false,
    "geometry": {
      "height": 1055,
      "width": 803,
      "x": 1115,
      "y": 2
    },
    "maximized": false,
    "normal_geometry": {
      "height": 1055,
      "width": 803,
      "x": 1115,
      "y": 2
    },
    "qt": {
      "__class__": "bytearray",
      "__value__": "AdnQywADAAAAAARZAAAAAAAAB38AAAQiAAAEWwAAAAIAAAd9AAAEIAAAAAAAAAAAB4AAAARbAAAAAgAAB30AAAQg"
    },
    "screen": {
      "depth": 24,
      "device_pixel_ratio": 1.0,
      "geometry_in_logical_pixels": {
        "height": 1080,
        "width": 1920,
        "x": 0,
        "y": 0
      },
      "index_in_screens_list": 0,
      "manufacturer": "Philips Consumer Electronics Company",
      "model": "PHL 241E1-",
      "name": "HDMI-1",
      "serial": "22106",
      "size_in_logical_pixels": {
        "height": 1080,
        "width": 1920
      },
      "virtual_geometry": {
        "height": 1080,
        "width": 1920,
        "x": 0,
        "y": 0
      }
    }
  },
  "geometry-of-single-cover-fetch-dialog-geometry": {
    "frame_geometry": {
      "height": 300,
      "width": 339,
      "x": 790,
      "y": 390
    },
    "full_screened": false,
    "geometry": {
      "height": 296,
      "width": 335,
      "x": 792,
      "y": 392
    },
    "maximized": false,
    "normal_geometry": {
      "height": 296,
      "width": 335,
      "x": 792,
      "y": 392
    },
    "qt": {
      "__class__": "bytearray",
      "__value__": "AdnQywADAAAAAAMWAAABhgAABGgAAAKxAAADGAAAAYgAAARmAAACrwAAAAAAAAAAB4AAAAMYAAABiAAABGYAAAKv"
    },
    "screen": {
      "depth": 24,
      "device_pixel_ratio": 1.0,
      "geometry_in_logical_pixels": {
        "height": 1080,
        "width": 1920,
        "x": 0,
        "y": 0
      },
      "index_in_screens_list": 0,
      "manufacturer": "Philips Consumer Electronics Company",
      "model": "PHL 241E1-",
      "name": "HDMI-1",
      "serial": "22106",
      "size_in_logical_pixels": {
        "height": 1080,
        "width": 1920
      },
      "virtual_geometry": {
        "height": 1080,
        "width": 1920,
        "x": 0,
        "y": 0
      }
    }
  },
  "grid view visible": false,
  "jobs view column layout3": {
    "__class__": "bytearray",
    "__value__": "AAAA/wAAAAAAAAABAAAAAQAAAAAAAAAAAAAAAAAAAAAAAAAAAAAAAfQAAAAFAQEBAAAAAAAAAAAAAAAAAGT/////AAAAhAAAAAAAAAAFAAAAZAAAAAEAAAAAAAAAZAAAAAEAAAAAAAAAZAAAAAEAAAAAAAAAZAAAAAEAAAAAAAAAZAAAAAEAAAAAAAAD6AAAAAAAAAAAAA=="
  },
  "library_usage_stats": {
    "/home/yannick/Bibliothèque calibre": 4,
    "/home/yannick/Calibre Library": 4,
    "/home/yannick/livres": 63
  },
  "match_books_dialog_books_table_widths": [
    100,
    100,
    100
  ],
  "memory_view books view state": {
    "column_alignment": {
      "size": "center",
      "timestamp": "center"
    },
    "column_positions": {
      "authors": 2,
      "collections": 5,
      "inlibrary": 0,
      "size": 4,
      "timestamp": 3,
      "title": 1
    },
    "column_sizes": {
      "authors": 183,
      "collections": 239,
      "inlibrary": 155,
      "size": 152,
      "timestamp": 143,
      "title": 380
    },
    "hidden_columns": [],
    "languages_injected": true,
    "last_modified_injected": true,
    "sort_history": [
      [
        "timestamp",
        false
      ],
      [
        "inlibrary",
        false
      ],
      [
        "timestamp",
        false
      ],
      [
        "inlibrary",
        false
      ],
      [
        "timestamp",
        false
      ],
      [
        "inlibrary",
        false
      ],
      [
        "timestamp",
        false
      ],
      [
        "inlibrary",
        false
      ],
      [
        "timestamp",
        false
      ],
      [
        "inlibrary",
        false
      ],
      [
        "timestamp",
        false
      ]
    ]
  },
  "metadata-download-identify-widget-splitter-state": {
    "__class__": "bytearray",
    "__value__": "AAAA/wAAAAEAAAACAAACAAAAAQAA/////wEAAAABAA=="
  },
  "previous_sort_order_BooksView": {
    "last_modified": false,
    "series": false
  },
  "quick_start_guide_added": true,
  "quickview visible": false,
  "quickview_dialog_books_table_widths": [
    305,
    305,
    305
  ],
  "recently_used_languages": [
    "Anglais",
    "Français"
  ],
  "replace_scene_breaks_history": [
    "",
    "<hr />",
    "∗ ∗ ∗",
    "• • •",
    "♦ ♦ ♦",
    "† †",
    "‡ ‡ ‡",
    "∞ ∞ ∞",
    "¤ ¤ ¤"
  ],
  "search bar visible": true,
  "show_emblems": false,
  "tag browser search box visible": false,
  "tag_browser_splitter_horizontal_state": [
    true,
    157
  ],
  "tb_search_order": {
    "0": 1,
    "1": 2,
    "2": 3,
    "3": 4,
    "4": 0
  },
  "toolbar_icon_size": "small",
  "toolbar_text": "auto"
}